[
  {"Name": "Tiancum", "ID_Number": "123.234.234.33", "Amount": "800", "Edit": ""},
  {"Name": "Nephi",   "ID_Number": "123.234.234.33", "Amount": "800", "Edit": ""},
  {"Name": "Enos",    "ID_Number": "123.234.234.33", "Amount": "800", "Edit": ""},
  {"Name": "Jacob",   "ID_Number": "123.234.234.33", "Amount": "800", "Edit": ""},
  {"Name": "Moroni",  "ID_Number": "123.234.234.33", "Amount": "800", "Edit": ""},
  {"Name": "Ether",   "ID_Number": "123.234.234.33", "Amount": "800", "Edit": ""},
  {"Name": "Alma",    "ID_Number": "123.234.234.33", "Amount": "800", "Edit": ""},
  {"Name": "Jared",   "ID_Number": "123.234.234.33", "Amount": "800", "Edit": ""},
  {"Name": "Moroni",  "ID_Number": "123.234.234.33", "Amount": "800", "Edit": ""},
  {"Name": "Tiancum", "ID_Number": "123.234.234.33", "Amount": "800", "Edit": ""},
  {"Name": "Jacob",   "ID_Number": "123.234.234.33", "Amount": "800", "Edit": ""},
  {"Name": "Nephi",   "ID_Number": "123.234.234.33", "Amount": "800", "Edit": ""},
  {"Name": "Enos",    "ID_Number": "123.234.234.33", "Amount": "800", "Edit": ""},
  {"Name": "Ether",   "ID_Number": "123.234.234.33", "Amount": "800", "Edit": ""},
  {"Name": "Alma",    "ID_Number": "123.234.234.33", "Amount": "800", "Edit": ""},
  {"Name": "Jared",   "ID_Number": "123.234.234.33", "Amount": "800", "Edit": ""},
  {"Name": "Moroni",  "ID_Number": "123.234.234.33", "Amount": "800", "Edit": ""},
  {"Name": "Tiancum", "ID_Number": "123.234.234.33", "Amount": "800", "Edit": ""},
  {"Name": "Jacob",   "ID_Number": "123.234.234.33", "Amount": "800", "Edit": ""},
  {"Name": "Nephi",   "ID_Number": "123.234.234.33", "Amount": "800", "Edit": ""}
]
